%!PS-Adobe-3.0
%%Title: loader.java
%%For: U-JNCS\Nicholas J. Macias
%%Creator: a2ps version 4.13
%%CreationDate: Tue Dec 21 20:23:07 2004
%%BoundingBox: 24 24 571 818
%%DocumentData: Clean7Bit
%%Orientation: Landscape
%%Pages: 3
%%PageOrder: Ascend
%%DocumentMedia: A4 595 842 0 () ()
%%DocumentNeededResources: font Courier
%%+ font Courier-Bold
%%+ font Courier-BoldOblique
%%+ font Courier-Oblique
%%+ font Helvetica
%%+ font Helvetica-Bold
%%+ font Symbol
%%+ font Times-Bold
%%+ font Times-Roman
%%DocumentProcessColors: Black 
%%DocumentSuppliedResources: procset a2ps-a2ps-hdr
%%+ procset a2ps-black+white-Prolog
%%+ encoding ISO-8859-1Encoding
%%EndComments
/a2psdict 200 dict def
a2psdict begin
%%BeginProlog
%%Copyright: (c) 1988, 89, 90, 91, 92, 93 Miguel Santana
%%Copyright: (c) 1995, 96, 97, 98 Akim Demaille, Miguel Santana
% Check PostScript language level.
/languagelevel where {
  pop /gs_languagelevel languagelevel def
} {
  /gs_languagelevel 1 def
} ifelse

% EPSF import as in the Red Book
/BeginInclude {
  /b4_Inc_state save def    		% Save state for cleanup
  /dict_count countdictstack def	% Count objects on dict stack
  /op_count count 1 sub def		% Count objects on operand stack 
  userdict begin
    0 setgray 0 setlinecap
    1 setlinewidth 0 setlinejoin
    10 setmiterlimit [ ] 0 setdash newpath
    gs_languagelevel 1 ne {
      false setstrokeadjust false setoverprint 
    } if
} bind def

/EndInclude {
  count op_count sub { pos } repeat	% Clean up stacks
  countdictstack dict_count sub { end } repeat
  b4_Inc_state restore
} bind def

/BeginEPSF {
  BeginInclude
  /showpage { } def
} bind def

/EndEPSF {
  EndInclude
} bind def

% Page prefeed
/page_prefeed {         % bool -> -
  statusdict /prefeed known {
    statusdict exch /prefeed exch put
  } {
    pop
  } ifelse
} bind def

/deffont {
  findfont exch scalefont def
} bind def

/reencode_font {
  findfont reencode 2 copy definefont pop def
} bind def

% Function c-show (str => -)
% centers text only according to x axis.
/c-show { 
  dup stringwidth pop
  2 div neg 0 rmoveto
  show
} bind def

% Function l-show (str => -)
% prints texts so that it ends at currentpoint
/l-show {
  dup stringwidth pop neg 
  0 
  rmoveto show
} bind def

% center-fit show (str w => -)
% show centered, and scale currentfont so that the width is less than w
/cfshow {
  exch dup stringwidth pop
  % If the title is too big, try to make it smaller
  3 2 roll 2 copy
  gt
  { % if, i.e. too big
    exch div
    currentfont exch scalefont setfont
  } { % ifelse
    pop pop 
  }
  ifelse
  c-show			% center title
} bind def

% Return the y size of the current font
% - => fontsize
/currentfontsize {
  currentfont /FontMatrix get 3 get 1000 mul
} bind def

% reencode the font
% <encoding-vector> <fontdict> -> <newfontdict>
/reencode { %def
  dup length 5 add dict begin
    { %forall
      1 index /FID ne 
      { def }{ pop pop } ifelse
    } forall
    /Encoding exch def

    % Use the font's bounding box to determine the ascent, descent,
    % and overall height; don't forget that these values have to be
    % transformed using the font's matrix.
    % We use `load' because sometimes BBox is executable, sometimes not.
    % Since we need 4 numbers an not an array avoid BBox from being executed
    /FontBBox load aload pop
    FontMatrix transform /Ascent exch def pop
    FontMatrix transform /Descent exch def pop
    /FontHeight Ascent Descent sub def

    % Define these in case they're not in the FontInfo (also, here
    % they're easier to get to.
    /UnderlinePosition 1 def
    /UnderlineThickness 1 def
    
    % Get the underline position and thickness if they're defined.
    currentdict /FontInfo known {
      FontInfo
      
      dup /UnderlinePosition known {
	dup /UnderlinePosition get
	0 exch FontMatrix transform exch pop
	/UnderlinePosition exch def
      } if
      
      dup /UnderlineThickness known {
	/UnderlineThickness get
	0 exch FontMatrix transform exch pop
	/UnderlineThickness exch def
      } if
      
    } if
    currentdict 
  end 
} bind def

% Function print line number (<string> # -)
/# {
  gsave
    sx cw mul neg 2 div 0 rmoveto
    f# setfont
    c-show
  grestore
} bind def

% -------- Some routines to enlight plain b/w printings ---------

% Underline
% width --
/dounderline {
  currentpoint
  gsave
    moveto
    0 currentfont /Descent get currentfontsize mul rmoveto
    0 rlineto
    stroke
  grestore
} bind def

% Underline a string
% string --
/dounderlinestring {
  stringwidth pop
  dounderline
} bind def

/UL {
  /ul exch store
} bind def

% Draw a box of WIDTH wrt current font
% width --
/dobox {
  currentpoint
  gsave
    newpath
    moveto
    0 currentfont /Descent get currentfontsize mul rmoveto
    dup 0 rlineto
    0 currentfont /FontHeight get currentfontsize mul rlineto
    neg 0 rlineto
    closepath
    stroke
  grestore
} bind def

/BX {
  /bx exch store
} bind def

% Box a string
% string --
/doboxstring {
  stringwidth pop
  dobox
} bind def

%
% ------------- Color routines ---------------
%
/FG /setrgbcolor load def

% Draw the background
% width --
/dobackground {
  currentpoint
  gsave
    newpath
    moveto
    0 currentfont /Descent get currentfontsize mul rmoveto
    dup 0 rlineto
    0 currentfont /FontHeight get currentfontsize mul rlineto
    neg 0 rlineto
    closepath
    bgcolor aload pop setrgbcolor
    fill
  grestore
} bind def

% Draw bg for a string
% string --
/dobackgroundstring {
  stringwidth pop
  dobackground
} bind def


/BG {
  dup /bg exch store
  { mark 4 1 roll ] /bgcolor exch store } if
} bind def


/Show {
  bg { dup dobackgroundstring } if
  ul { dup dounderlinestring } if
  bx { dup doboxstring } if
  show
} bind def

% Function T(ab), jumps to the n-th tabulation in the current line
/T {
  cw mul x0 add
  bg { dup currentpoint pop sub dobackground } if
  ul { dup currentpoint pop sub dounderline } if
  bx { dup currentpoint pop sub dobox } if
  y0 moveto
} bind def

% Function n: move to the next line
/n {
  /y0 y0 bfs sub store
  x0 y0 moveto
} bind def

% Function N: show and move to the next line
/N {
  Show
  /y0 y0 bfs sub store
  x0 y0 moveto
} bind def

/S {
  Show
} bind def

%%BeginResource: procset a2ps-a2ps-hdr 2.0 2
%%Copyright: (c) 1988, 89, 90, 91, 92, 93 Miguel Santana
%%Copyright: (c) 1995, 96, 97, 98 Akim Demaille, Miguel Santana
% Function title: prints page header.
% <ct> <rt> <lt> are passed as argument
/title { 
  % 1. Draw the background
  x v get y v get moveto
  gsave
    0 th 2 div neg rmoveto 
    th setlinewidth
    0.95 setgray
    pw 0 rlineto stroke
  grestore
  % 2. Border it
  gsave
    0.7 setlinewidth
    pw 0 rlineto
    0 th neg rlineto
    pw neg 0 rlineto
    closepath stroke
  grestore
  % stk: ct rt lt
  x v get y v get th sub 1 add moveto
%%IncludeResource: font Helvetica
  fHelvetica fnfs 0.8 mul scalefont setfont
  % 3. The left title
  gsave
    dup stringwidth pop fnfs 0.8 mul add exch % leave space took on stack
    fnfs 0.8 mul hm rmoveto
    show			% left title
  grestore
  exch
  % stk: ct ltw rt
  % 4. the right title
  gsave
    dup stringwidth pop fnfs 0.8 mul add exch % leave space took on stack
    dup
    pw exch stringwidth pop fnfs 0.8 mul add sub
    hm
    rmoveto
    show			% right title
  grestore
  % stk: ct ltw rtw
  % 5. the center title
  gsave
    pw 3 1 roll
    % stk: ct pw ltw rtw
    3 copy 
    % Move to the center of the left room
    sub add 2 div hm rmoveto
    % What is the available space in here?
    add sub fnfs 0.8 mul sub fnfs 0.8 mul sub
    % stk: ct space_left
%%IncludeResource: font Helvetica-Bold
  fHelvetica-Bold fnfs scalefont setfont
    cfshow
  grestore
} bind def

% Function border: prints virtual page border
/border { %def
  gsave				% print four sides
    0 setgray
    x v get y v get moveto
    0.7 setlinewidth		% of the square
    pw 0 rlineto
    0 ph neg rlineto
    pw neg 0 rlineto
    closepath stroke
  grestore
} bind def

% Function water: prints a water mark in background
/water { %def
  gsave
    scx scy moveto rotate
%%IncludeResource: font Times-Bold
  fTimes-Bold 100 scalefont setfont
    .97 setgray
    dup stringwidth pop 2 div neg -50 rmoveto
    show
  grestore
} bind def

% Function rhead: prints the right header
/rhead {  %def
  lx ly moveto
  fHelvetica fnfs 0.8 mul scalefont setfont
  l-show
} bind def

% Function footer (cf rf lf -> -)
/footer {
  fHelvetica fnfs 0.8 mul scalefont setfont
  dx dy moveto
  show

  snx sny moveto
  l-show
  
  fnx fny moveto
  c-show
} bind def
%%EndResource
%%BeginResource: procset a2ps-black+white-Prolog 2.0 1

% Function T(ab), jumps to the n-th tabulation in the current line
/T { 
  cw mul x0 add y0 moveto
} bind def

% Function n: move to the next line
/n { %def
  /y0 y0 bfs sub store
  x0 y0 moveto
} bind def

% Function N: show and move to the next line
/N {
  Show
  /y0 y0 bfs sub store
  x0 y0 moveto
}  bind def

/S {
  Show
} bind def

/p {
  false UL
  false BX
  fCourier bfs scalefont setfont
  Show
} bind def

/sy {
  false UL
  false BX
  fSymbol bfs scalefont setfont
  Show
} bind def

/k {
  false UL
  false BX
  fCourier-Oblique bfs scalefont setfont
  Show
} bind def

/K {
  false UL
  false BX
  fCourier-Bold bfs scalefont setfont
  Show
} bind def

/c {
  false UL
  false BX
  fCourier-Oblique bfs scalefont setfont
  Show
} bind def

/C {
  false UL
  false BX
  fCourier-BoldOblique bfs scalefont setfont
  Show 
} bind def

/l {
  false UL
  false BX
  fHelvetica bfs scalefont setfont
  Show
} bind def

/L {
  false UL
  false BX
  fHelvetica-Bold bfs scalefont setfont
  Show 
} bind def

/str{
  false UL
  false BX
  fTimes-Roman bfs scalefont setfont
  Show
} bind def

/e{
  false UL
  true BX
  fHelvetica-Bold bfs scalefont setfont
  Show
} bind def

%%EndResource
%%EndProlog
%%BeginSetup
%%IncludeResource: font Courier
%%IncludeResource: font Courier-Oblique
%%IncludeResource: font Courier-Bold
%%IncludeResource: font Times-Roman
%%IncludeResource: font Symbol
%%IncludeResource: font Courier-BoldOblique
%%BeginResource: encoding ISO-8859-1Encoding
/ISO-8859-1Encoding [
/.notdef /.notdef /.notdef /.notdef /.notdef /.notdef /.notdef /.notdef 
/.notdef /.notdef /.notdef /.notdef /.notdef /.notdef /.notdef /.notdef 
/.notdef /.notdef /.notdef /.notdef /.notdef /.notdef /.notdef /.notdef 
/.notdef /.notdef /.notdef /.notdef /.notdef /.notdef /.notdef /.notdef 
/space /exclam /quotedbl /numbersign /dollar /percent /ampersand /quoteright 
/parenleft /parenright /asterisk /plus /comma /minus /period /slash 
/zero /one /two /three /four /five /six /seven 
/eight /nine /colon /semicolon /less /equal /greater /question 
/at /A /B /C /D /E /F /G 
/H /I /J /K /L /M /N /O 
/P /Q /R /S /T /U /V /W 
/X /Y /Z /bracketleft /backslash /bracketright /asciicircum /underscore 
/quoteleft /a /b /c /d /e /f /g 
/h /i /j /k /l /m /n /o 
/p /q /r /s /t /u /v /w 
/x /y /z /braceleft /bar /braceright /asciitilde /.notdef 
/.notdef /.notdef /.notdef /.notdef /.notdef /.notdef /.notdef /.notdef 
/.notdef /.notdef /.notdef /.notdef /.notdef /.notdef /.notdef /.notdef 
/.notdef /.notdef /.notdef /.notdef /.notdef /.notdef /.notdef /.notdef 
/.notdef /.notdef /.notdef /.notdef /.notdef /.notdef /.notdef /.notdef 
/space /exclamdown /cent /sterling /currency /yen /brokenbar /section 
/dieresis /copyright /ordfeminine /guillemotleft /logicalnot /hyphen /registered /macron 
/degree /plusminus /twosuperior /threesuperior /acute /mu /paragraph /bullet 
/cedilla /onesuperior /ordmasculine /guillemotright /onequarter /onehalf /threequarters /questiondown 
/Agrave /Aacute /Acircumflex /Atilde /Adieresis /Aring /AE /Ccedilla 
/Egrave /Eacute /Ecircumflex /Edieresis /Igrave /Iacute /Icircumflex /Idieresis 
/Eth /Ntilde /Ograve /Oacute /Ocircumflex /Otilde /Odieresis /multiply 
/Oslash /Ugrave /Uacute /Ucircumflex /Udieresis /Yacute /Thorn /germandbls 
/agrave /aacute /acircumflex /atilde /adieresis /aring /ae /ccedilla 
/egrave /eacute /ecircumflex /edieresis /igrave /iacute /icircumflex /idieresis 
/eth /ntilde /ograve /oacute /ocircumflex /otilde /odieresis /divide 
/oslash /ugrave /uacute /ucircumflex /udieresis /yacute /thorn /ydieresis 
] def
%%EndResource
% Initialize page description variables.
/sh 595 def
/sw 842 def
/llx 24 def
/urx 818 def
/ury 571 def
/lly 24 def
/#copies 1 def
/th 15.000000 def
/fnfs 11 def
/bfs 8.005733 def
/cw 4.803440 def

% Dictionary for ISO-8859-1 support
/iso1dict 8 dict begin
  /fCourier ISO-8859-1Encoding /Courier reencode_font
  /fCourier-Bold ISO-8859-1Encoding /Courier-Bold reencode_font
  /fCourier-BoldOblique ISO-8859-1Encoding /Courier-BoldOblique reencode_font
  /fCourier-Oblique ISO-8859-1Encoding /Courier-Oblique reencode_font
  /fHelvetica ISO-8859-1Encoding /Helvetica reencode_font
  /fHelvetica-Bold ISO-8859-1Encoding /Helvetica-Bold reencode_font
  /fTimes-Bold ISO-8859-1Encoding /Times-Bold reencode_font
  /fTimes-Roman ISO-8859-1Encoding /Times-Roman reencode_font
currentdict end def
/bgcolor [ 0 0 0 ] def
/bg false def
/ul false def
/bx false def
% The font for line numbering
/f# /Helvetica findfont bfs .6 mul scalefont def
/fSymbol /Symbol findfont def
/hm fnfs 0.25 mul def
/pw
   cw 81.400000 mul
def
/ph
   501.959430 th add
def
/pmw urx llx sub pw 2 mul sub 1 div def
/pmh 0 def
/v 0 def
/x [
  0
  dup pmw add pw add
] def
/y [
  pmh ph add 0 mul ph add
  dup
] def
/scx sw 2 div def
/scy sh 2 div def
/snx urx def
/sny lly 2 add def
/dx llx def
/dy sny def
/fnx scx def
/fny dy def
/lx snx def
/ly ury fnfs 0.8 mul sub def
/sx 0 def
/tab 8 def
/x0 0 def
/y0 0 def
%%EndSetup

%%Page: (1-2) 1
%%BeginPageSetup
/pagesave save def
sh 0 translate 90 rotate
%%EndPageSetup
iso1dict begin
gsave
llx lly 12 add translate
/v 0 store
/x0 x v get 3.362408 add sx cw mul add store
/y0 y v get bfs th add sub store
x0 y0 moveto
(import) K
( java.util.*;) p n
(import) K
( java.awt.*;) p n
(import) K
( java.io.*;) p n
(import) K
( java.awt.event.*;) p n
(import) K
( java.awt.image.*;) p n
(import) K
( java.awt.Color;) p n
(import) K
( java.awt.Graphics;) p n
() N
(/*) c n
( * loader is the main class) N
( * It sets up some global vars, and creates the first window) N
( */) N
() p n
(public) K
( ) p
(class) K
( ) p
(loader) L
( ) p
(extends) K
( Frame ) p n
({) N
(/* Hash tables for storing cell information from libraries */) c n
(  ) p
(public) K
( Hashtable cellHash=) p
(new) K
( Hashtable\(\);) p n
(  ) S
(public) K
( Hashtable lib_loaded_hash = ) p
(new) K
( Hashtable\(\); ) p
(/* Remembers which libs ar) c n
(e loaded */) N
(  ) p
(public) K
( String libroot; ) p
(/* Base directory for libraries */) c n
(  ) p
(public) K
( griddataclass clipboard[][];) p n
(  ) S
(public) K
( ) p
(int) k
( clipboard_r=-1,clipboard_c=-1;) p n
(  ) S
(public) K
( ) p
(int) k
( numWindows=1; ) p
(/* Start with one window */) c n
(  ) p
(public) K
( createIcon ie;  ) p
(/* Icon editor */) c n
(  ) p
(public) K
( ) p
(boolean) k
( ieup=) p
(false) k
(; ) p
(/* Set when LD's superlicious icon editor is displa) c n
(yed */) N
(  msgwin mwin;) p n
() N
(/* Miscellaneous variables for tracking # of windows, etc. */) c n
() p n
(/* Main program starts here-instantiate the first main window */) c n
() p n
(  ) S
(public) K
( ) p
(static) K
( ) p
(void) k
( main\(String args[]\)) p n
(  {) N
(    loader self=) S
(new) K
( loader\(\); ) p
(/* create an instance of loader class */) c n
(/* This is necessary since main\(\) is abstract and thus doesn't have "this" */) N
(  }) p n
() N
(/* Constructor for this class */) c n
(  loader\(\)) p n
(  {) N
(    libroot=") S
(C:\\\\NICK'S STUFF\\\\JAVA\\\\LOADER\\\\LIBRARIES\\\\) str
(";) p n
(    ) S
(/* System.out.println\("libroot=<"+libroot+">"\); */) c n
(/* Specify LIBROOT when running loader.class via the "-DLIBROOT=..." switch */) N
(    libroot=System.getProperty\(") p
(LIBROOT) str
("\);) p n
() N
(/* See if the license file exists */) c n
(  ) p
(try) K
( {) p n
(    FileReader fr=) S
(new) K
( FileReader\(libroot+") p
(LICENSE.TXT) str
("\);) p n
(    BufferedReader in=) S
(new) K
( BufferedReader\(fr\);) p n
(    String temp=in.readLine\(\);) N
(    in.close\(\); ) S
(/* License must exist! */) c n
(  } ) p
(catch) K
( \(Exception e\){ ) p
(/* NO LICENSE... */) c n
(    license license_obj=) p
(new) K
( license\(\);) p n
(    ) S
(while) K
( \(license.done\(\) == 0\);) p n
(    ) S
(if) K
( \(license.done\(\)!=2\){) p n
(      System.out.println\(") S
(You must accept the license terms to run this software.\\n) str
("\);) p n
(      System.exit\(0\);) N
(    }) N
(/* User has accepted the license-create license.txt to record this fact */) c n
(    ) p
(try) K
({) p n
(      FileWriter fw=) S
(new) K
( FileWriter\(libroot+") p
(LICENSE.TXT) str
("\);) p n
(loader.java) (Page 1/6) (Dec 13, 01 20:19) title
border
/v 1 store
/x0 x v get 3.362408 add sx cw mul add store
/y0 y v get bfs th add sub store
x0 y0 moveto
(      BufferedWriter out=) p
(new) K
( BufferedWriter\(fw\);) p n
(      out.write\(license.text\(\)\);) N
(      out.close\(\);) N
(    } ) S
(catch) K
( \(Exception e2\){) p n
(      System.out.println\(") S
(Unknown error ) str
(" + e2 + ") p
(creating ) str
(" + libroot + ") p
(LICENSE.TXT fil) str n
(e) S
("\);) p n
(      System.exit\(0\);) N
(    }) N
(  }) N
() N
(    mwin=) S
(new) K
( msgwin\(\); ) p
(/* Create message window */) c n
(    msg\(") p
(Beginning loader at ) str
(" + ) p
(new) K
( Date\(\)\);) p n
(    msg\(") S
(libroot=<) str
("+libroot+") p
(>) str
("\);) p n
() N
(    main_window mw=) S
(new) K
( main_window\() p
(this) k
(,32,32\); ) p
(/* Create initial window with em) c n
(pty grid */) N
(    mw.setSize\(400,400\);) p n
(    mw.show\(\); ) S
(/* This seems to cause layout manager to repack components */) c n
(    mw.setLocation\(mwin.getLocation\(\).x+mwin.getSize\(\).width,mwin.getLocation\(\).) p n
(y\);) N
() N
(  }) N
() N
(  ) S
(public) K
( ) p
(void) k
( msg\(String t\)) p n
(  {) N
(    mwin.addtext\(t\);) N
(  }) N
() N
() N
(/* Code for updating windws as icons change */) c n
() p n
(  Vector windows=) S
(new) K
( Vector\(\);) p n
() N
(/* other windows call register\(\) when they are created and de-register\(\) when th) c n
(ey are closed */) N
() p n
(  ) S
(public) K
( ) p
(void) k
( register\(main_window w\)) p n
(  {) N
(    windows.addElement\(\(Object\) w\);) N
(  }) N
() N
(  ) S
(public) K
( ) p
(void) k
( deregister\(main_window w\)) p n
(  {) N
(    ) S
(boolean) k
( ignore=windows.removeElement\(w\);) p n
(  }) N
() N
(  ) S
(public) K
( ) p
(void) k
( update_all\(\)) p n
(  {) N
(    Enumeration e=windows.elements\(\);) N
(    ) S
(while) K
( \(e.hasMoreElements\(\)\){) p n
(      main_window mw=\(main_window\) e.nextElement\(\);) N
(      mw.repaint\(\);) N
(    }) N
(  }) N
() N
(}) N
() N
(class) K
( ) p
(license) L
( ) p
(extends) K
( Frame) p n
(implements) K
( ActionListener  ) p
(/* For ACCEPT/DECLINE buttons */) c n
({) p n
(  ) S
(static) K
( TextArea ta;) p n
(  ) S
(static) K
( ) p
(int) k
( doneflag=0;) p n
(loader.java) (Page 2/6) (Dec 13, 01 20:19) title
border
grestore
(Printed by U-JNCS\\Nicholas J. Macias) rhead
(loader.java) (1/3) (Tuesday December 21, 2004) footer
end % of iso1dict
pagesave restore
showpage
%%Page: (3-4) 2
%%BeginPageSetup
/pagesave save def
sh 0 translate 90 rotate
%%EndPageSetup
iso1dict begin
gsave
llx lly 12 add translate
/v 0 store
/x0 x v get 3.362408 add sx cw mul add store
/y0 y v get bfs th add sub store
x0 y0 moveto
() p n
(  license\(\)) N
(  {) N
(    ) S
(super) K
(\(") p
(Licensing Agreement-Read Carefully) str
("\);) p n
(/* Now we add the elements to the cell-selector window */) c n
(    setLayout\() p
(new) K
( BorderLayout\(\)\);) p n
() N
(    Panel p1=) S
(new) K
( Panel\(\);) p n
(/* Add buttons */) c n
(    Button b1=) p
(new) K
( Button\(") p
(Accept) str
("\);) p n
(    b1.addActionListener\() S
(this) k
(\);) p n
(    p1.add\(b1\);) N
() N
(    Button b2=) S
(new) K
( Button\(") p
(Decline) str
("\);) p n
(    b2.addActionListener\() S
(this) k
(\);) p n
(    p1.add\(b2\);) N
() N
(    Panel p3=) S
(new) K
( Panel\(\);) p n
(    p3.setLayout\() S
(new) K
( BorderLayout\(\)\);) p n
(    ta=) S
(new) K
( TextArea\(\);) p n
(    p3.add\(ta,") S
(Center) str
("\);) p n
() N
(/* Now place these in window */) c n
(    add\(p3,") p
(Center) str
("\);) p n
(    add\(p1,") S
(South) str
("\);) p n
() N
(    this.setSize\(600,700\);) N
(    ta.setText\(""\);) N
(ta.setText\(ta.getText\(\)+") S
(SOFTWARE LICENSE AGREEMENT AND LIMITED WARRANTY \\n) str
("\);) p n
(ta.setText\(ta.getText\(\)+") S
( \\n) str
("\);) p n
(ta.setText\(ta.getText\(\)+") S
(READ THE TERMS AND CONDITIONS OF THIS LICENSE AGREEMENT C) str n
(AREFULLY\\n) S
("\);) p n
(ta.setText\(ta.getText\(\)+") S
(BEFORE CONTINUING WITH THE INSTALLATION OR USE OF THE CEL) str n
(L MATRIX\\n) S
("\);) p n
(ta.setText\(ta.getText\(\)+") S
(LOADER OR ANY ASSOCIATED FILES, LIBRARIES, JAVA CLASSES, OR\\) str n
(n) S
("\);) p n
(ta.setText\(ta.getText\(\)+") S
(DOCUMENTATION \(COLLECTIVELY REFERRED TO HEREAFTER AS \\"T) str n
(HE PROGRAM\\"\).\\n) S
("\);) p n
(ta.setText\(ta.getText\(\)+") S
(THE PROGRAM IS COPYRIGHTED AND LICENSED, NOT SOLD. BY PRE) str n
(SSING THE\\n) S
("\);) p n
(ta.setText\(ta.getText\(\)+") S
(\\"ACCEPT\\" BUTTON, YOU INDICATE YOUR ACCEPTENCE OF THE TER) str n
(MS AND\\n) S
("\);) p n
(ta.setText\(ta.getText\(\)+") S
(CONDITIONS BELOW. \\n) str
("\);) p n
(ta.setText\(ta.getText\(\)+") S
( \\n) str
("\);) p n
(ta.setText\(ta.getText\(\)+") S
(1. License. Cell Matrix Corporation \(\\"Licensor\\"\) hereby grants you\\n) str
("\);) p n
(ta.setText\(ta.getText\(\)+") S
(a nonexclusive license to use The Program, solely for your own use\\n) str
("\);) p n
(ta.setText\(ta.getText\(\)+") S
(in developing designs for Cell Matrix programmable devices or for\\n) str
("\);) p n
(ta.setText\(ta.getText\(\)+") S
(your own research purposes. Your use of any intellectual\\n) str
("\);) p n
(ta.setText\(ta.getText\(\)+") S
(property contained in The Program, in accordance with the terms of\\n) str
("\);) p n
(ta.setText\(ta.getText\(\)+") S
(this License Agreement, shall not constitute a license of that\\n) str
("\);) p n
(ta.setText\(ta.getText\(\)+") S
(intellectual property outside the context of The Program. Cell\\n) str
("\);) p n
(ta.setText\(ta.getText\(\)+") S
(Matrix Corporation and/or it's directors retain title to The Program\\n) str
("\);) p n
(ta.setText\(ta.getText\(\)+") S
(and to any patents, copyrights, trade secrets and other intellectual\\n) str
("\);) p n
(ta.setText\(ta.getText\(\)+") S
(property rights therein. This License allows you to use The Program\\n) str
("\);) p n
(ta.setText\(ta.getText\(\)+") S
(on a single computer. You may NOT distribute any part of The Program.\\n) str
("\);) p n
(ta.setText\(ta.getText\(\)+") S
(This License Agreement does not convey to you an interest in The\\n) str
("\);) p n
(ta.setText\(ta.getText\(\)+") S
(Program, nor to any intellectual property contained therein, but\\n) str
("\);) p n
(ta.setText\(ta.getText\(\)+") S
(only a limited right of use, revocable in accordance with the terms\\n) str
("\);) p n
(ta.setText\(ta.getText\(\)+") S
(of this License Agreement \\n) str
("\);) p n
(ta.setText\(ta.getText\(\)+") S
(\\nUnder no circumstances are you to use The Program for any\\n) str
("\);) p n
(ta.setText\(ta.getText\(\)+") S
(commercial purposes whatsoever.\\n) str
("\);) p n
(ta.setText\(ta.getText\(\)+") S
( \\n) str
("\);) p n
(loader.java) (Page 3/6) (Dec 13, 01 20:19) title
border
/v 1 store
/x0 x v get 3.362408 add sx cw mul add store
/y0 y v get bfs th add sub store
x0 y0 moveto
(ta.setText\(ta.getText\(\)+") p
(2. Confidentiality. The Program is confidential and proprietary\\n) str
("\);) p n
(ta.setText\(ta.getText\(\)+") S
(information of Cell Matrix Corporation and/or it's directors. You\\n) str
("\);) p n
(ta.setText\(ta.getText\(\)+") S
(agree to take reasonable steps to protect The Program from\\n) str
("\);) p n
(ta.setText\(ta.getText\(\)+") S
(unauthorized disclosure or use. You agree that you shall not\\n) str
("\);) p n
(ta.setText\(ta.getText\(\)+") S
(\(and shall not permit other persons or entities to\) distribute,\\n) str
("\);) p n
(ta.setText\(ta.getText\(\)+") S
(reverse-engineer, decompile, disassemble, merge, modify, create\\n) str
("\);) p n
(ta.setText\(ta.getText\(\)+") S
(derivative works of \(in whole or in part\), or translate any part\\n) str
("\);) p n
(ta.setText\(ta.getText\(\)+") S
(of The Program except as allowed in this license agreement.\\n) str
("\);) p n
(ta.setText\(ta.getText\(\)+") S
( \\n) str
("\);) p n
(ta.setText\(ta.getText\(\)+") S
(3. Term. This License Agreement is effective upon your pressing\\n) str
("\);) p n
(ta.setText\(ta.getText\(\)+") S
(the \\"Accept\\" button and shall continue until terminated. You may\\n) str
("\);) p n
(ta.setText\(ta.getText\(\)+") S
(terminate this License Agreement at any time by destroying all\\n) str
("\);) p n
(ta.setText\(ta.getText\(\)+") S
(copies of The Program. Licensor may terminate this License Agreement\\n) str
("\);) p n
(ta.setText\(ta.getText\(\)+") S
(at any time and without notice, upon breach by you of any term\\n) str
("\);) p n
(ta.setText\(ta.getText\(\)+") S
(hereof. Upon termination, you must destroy all copies of The Program.\\n) str
("\);) p n
(ta.setText\(ta.getText\(\)+") S
(\\n) str
("\);) p n
(ta.setText\(ta.getText\(\)+") S
(4. Limitation of Liability. In no event will Cell Matrix Corporation\\n) str
("\);) p n
(ta.setText\(ta.getText\(\)+") S
(nor its directors be liable for any losses, including but not limited\\n) str
("\);) p n
(ta.setText\(ta.getText\(\)+") S
(to lost revenue, profit or data, or for direct, special, indirect,\\n) str
("\);) p n
(ta.setText\(ta.getText\(\)+") S
(consequential, incidental or punitive damages, however caused,\\n) str
("\);) p n
(ta.setText\(ta.getText\(\)+") S
(arising out of the installation, use of or inability to use The\\n) str
("\);) p n
(ta.setText\(ta.getText\(\)+") S
(Program, even if Cell Matrix Corporation or its directors have been\\n) str
("\);) p n
(ta.setText\(ta.getText\(\)+") S
(advised of the possibility of such damages. Some states do not allow\\n) str
("\);) p n
(ta.setText\(ta.getText\(\)+") S
(the limitation or exclusion of liability for incidental or\\n) str
("\);) p n
(ta.setText\(ta.getText\(\)+") S
(consequential damages, so the above limitation or exclusion may\\n) str
("\);) p n
(ta.setText\(ta.getText\(\)+") S
(not apply to you. \\n) str
("\);) p n
(ta.setText\(ta.getText\(\)+") S
( \\n) str
("\);) p n
(ta.setText\(ta.getText\(\)+") S
(5. Disclaimer. Cell Matrix Corporation makes and you receive no\\n) str
("\);) p n
(ta.setText\(ta.getText\(\)+") S
(warranties or conditions, express, implied, statutory or otherwise,\\n) str
("\);) p n
(ta.setText\(ta.getText\(\)+") S
(and Cell Matrix Corporation specifically disclaims any implied\\n) str
("\);) p n
(ta.setText\(ta.getText\(\)+") S
(warranties of merchantability, noninfringement, or fitness for a\\n) str
("\);) p n
(ta.setText\(ta.getText\(\)+") S
(particular purpose. Cell Matrix Corporation does not warrant that\\n) str
("\);) p n
(ta.setText\(ta.getText\(\)+") S
(the functions contained in The program will meet your requirements,\\n) str
("\);) p n
(ta.setText\(ta.getText\(\)+") S
(or that the operation of The Program will be uninterrupted or error\\n) str
("\);) p n
(ta.setText\(ta.getText\(\)+") S
(free, or that defects in The Program will be corrected. Furthermore,\\n) str
("\);) p n
(ta.setText\(ta.getText\(\)+") S
(Cell Matrix Corporation does not warrant or make any representations\\n) str
("\);) p n
(ta.setText\(ta.getText\(\)+") S
(regarding use or the results of the use of The Program in terms of\\n) str
("\);) p n
(ta.setText\(ta.getText\(\)+") S
(correctness, accuracy, reliability or otherwise. \\n) str
("\);) p n
(ta.setText\(ta.getText\(\)+") S
( \\n) str
("\);) p n
(ta.setText\(ta.getText\(\)+") S
(6. High Risk Activities. The Program is not fault-tolerant and is\\n) str
("\);) p n
(ta.setText\(ta.getText\(\)+") S
(not designed, manufactured or intended for use as on-line control\\n) str
("\);) p n
(ta.setText\(ta.getText\(\)+") S
(equipment in hazardous environments requiring fail-safe performance,\\n) str
("\);) p n
(ta.setText\(ta.getText\(\)+") S
(such as in the operation of nuclear facilities, aircraft navigation\\n) str
("\);) p n
(ta.setText\(ta.getText\(\)+") S
(or communication systems, or air traffic control, in which failure\\n) str
("\);) p n
(ta.setText\(ta.getText\(\)+") S
(of The Program could lead directly to death, personal injury, or\\n) str
("\);) p n
(ta.setText\(ta.getText\(\)+") S
(severe physical or environmental damage \(\\"High Risk Activities\\"\).\\n) str
("\);) p n
(ta.setText\(ta.getText\(\)+") S
(Cell Matrix Corporation specifically disclaims any express or implied\\n) str
("\);) p n
(ta.setText\(ta.getText\(\)+") S
(warranty of fitness for High Risk Activities. \\n) str
("\);) p n
(ta.setText\(ta.getText\(\)+") S
( \\n) str
("\);) p n
(ta.setText\(ta.getText\(\)+") S
(7. Miscellaneous. Should any term of this License Agreement be\\n) str
("\);) p n
(ta.setText\(ta.getText\(\)+") S
(declared void or unenforceable by any court of competent jurisdiction,\\n) str
("\);) p n
(ta.setText\(ta.getText\(\)+") S
(such declaration shall have on effect on the remaining terms hereof.\\n) str
("\);) p n
(ta.setText\(ta.getText\(\)+") S
(The failure of either party to enforce any rights granted hereunder\\n) str
("\);) p n
(ta.setText\(ta.getText\(\)+") S
(or to take action against the other party in the event of any breach\\n) str
("\);) p n
(ta.setText\(ta.getText\(\)+") S
(hereunder shall not be deemed a waiver by that party as to subsequent\\n) str
("\);) p n
(ta.setText\(ta.getText\(\)+") S
(actions in the event of future breaches. \\n) str
("\);) p n
(ta.setText\(ta.getText\(\)+") S
(\\n) str
("\);) p n
(ta.setText\(ta.getText\(\)+") S
(Upon accepting the terms of this License Agreement,a copy of it will\\n) str
("\);) p n
(ta.setText\(ta.getText\(\)+") S
(be placed in your selected library root.\\n) str
("\);) p n
( ) N
() N
(    repaint\(\);) N
(loader.java) (Page 4/6) (Dec 13, 01 20:19) title
border
grestore
(Printed by U-JNCS\\Nicholas J. Macias) rhead
(loader.java) (2/3) (Tuesday December 21, 2004) footer
end % of iso1dict
pagesave restore
showpage
%%Page: (5-6) 3
%%BeginPageSetup
/pagesave save def
sh 0 translate 90 rotate
%%EndPageSetup
iso1dict begin
gsave
llx lly 12 add translate
/v 0 store
/x0 x v get 3.362408 add sx cw mul add store
/y0 y v get bfs th add sub store
x0 y0 moveto
(    show\(\);) p n
() N
(    addWindowListener\() S
(new) K
( WindowAdapter\(\){) p n
(      ) S
(public) K
( ) p
(void) k
( windowClosing\(WindowEvent we\){) p n
(        doneflag=1;  ) S
(/* NOT accepted */) c n
(        dispose\(\);) p n
(      }) N
(    }\);) N
(  } ) S
(/* End of constructor */) c n
() p n
(  ) S
(public) K
( ) p
(void) k
( actionPerformed\(ActionEvent ae\)) p n
(  {) N
(    ) S
(if) K
( \(ae.getActionCommand\(\).equals\(") p
(Accept) str
("\)\){) p n
(      doneflag=2;) N
(      dispose\(\);) N
(    } ) S
(else) K
( ) p
(if) K
( \(ae.getActionCommand\(\).equals\(") p
(Decline) str
("\)\){) p n
(      doneflag=1;) N
(      dispose\(\);) N
(    } ) S
(else) K
( {) p n
(      doneflag=1;) N
(      dispose\(\);) N
(    }) N
(  }) N
() N
(  ) S
(public) K
( ) p
(static) K
( String text\(\)) p n
(  {) N
(    ) S
(return) K
(\(ta.getText\(\)\);) p n
(  }) N
() N
(  ) S
(public) K
( ) p
(static) K
( ) p
(int) k
( done\(\)) p n
(  {) N
(    ) S
(return) K
( \(doneflag\);) p n
(  }) N
(} ) S
(/* End of msgwin */) c n
() p n
(class) K
( ) p
(msgwin) L
( ) p
(extends) K
( Frame) p n
(implements) K
( ActionListener ) p
(/* for CLEAR button */) c n
({) p n
(  TextArea ta;) N
() N
(/*** CONSTRUCTOR ***/) C n
(  msgwin\(\)) p n
(  {) N
(    ) S
(super) K
(\(""\);) p n
() N
(/* Now we add the elements to the cell-selector window */) c n
(    setLayout\() p
(new) K
( BorderLayout\(\)\);) p n
() N
(    Panel p1=) S
(new) K
( Panel\(\);) p n
(/* Add buttons */) c n
(    Button b1=) p
(new) K
( Button\(") p
(Clear) str
("\);) p n
(    b1.addActionListener\() S
(this) k
(\);) p n
(    p1.add\(b1\);) N
() N
(    Panel p3=) S
(new) K
( Panel\(\);) p n
(    p3.setLayout\() S
(new) K
( BorderLayout\(\)\);) p n
(    ta=) S
(new) K
( TextArea\(\);) p n
(    p3.add\(ta,") S
(Center) str
("\);) p n
() N
(/* Now place these in window */) c n
(    add\(p3,") p
(Center) str
("\);) p n
(    add\(p1,") S
(South) str
("\);) p n
(loader.java) (Page 5/6) (Dec 13, 01 20:19) title
border
/v 1 store
/x0 x v get 3.362408 add sx cw mul add store
/y0 y v get bfs th add sub store
x0 y0 moveto
() p n
(    this.setSize\(200,150\);) N
() N
(    repaint\(\);) N
(    show\(\);) N
() N
(    addWindowListener\() S
(new) K
( WindowAdapter\(\){) p n
(      ) S
(public) K
( ) p
(void) k
( windowClosing\(WindowEvent we\){) p n
(        dispose\(\);) N
(      }) N
(    }\);) N
(  } ) S
(/* End of constructor */) c n
() p n
(  ) S
(public) K
( ) p
(void) k
( actionPerformed\(ActionEvent ae\)) p n
(  {) N
(    ) S
(if) K
( \(ae.getActionCommand\(\).equals\(") p
(Clear) str
("\)\){) p n
(      ta.setText\(""\);) N
(    } ) S
(else) K
( dispose\(\);) p n
(  }) N
() N
(  ) S
(public) K
( ) p
(void) k
( addtext\(String t\)) p n
(  {) N
(    ta.setText\(ta.getText\(\) + t + ") S
(\\n) str
("\);) p n
(    ta.select\(\(ta.getText\(\)\).length\(\)-1,ta.getText\(\).length\(\)-1\);) N
(  }) N
() N
(} ) S
(/* End of msgwin */) c n
(loader.java) (Page 6/6) (Dec 13, 01 20:19) title
border
grestore
(Printed by U-JNCS\\Nicholas J. Macias) rhead
(loader.java) (3/3) (Tuesday December 21, 2004) footer
end % of iso1dict
pagesave restore
showpage

%%Trailer
end
%%EOF
